.,group,treatment,time,donor
Sample_Rat.Tendon.PGDS_OOO_WT_OOO_CTRL_Day0_Rep1,CTRL_Day0,CTRL,Day0,Rep1
Sample_Rat.Tendon.PGDS_OOO_WT_OOO_CTRL_Day0_Rep2,CTRL_Day0,CTRL,Day0,Rep2
Sample_Rat.Tendon.PGDS_OOO_WT_OOO_CTRL_Day0_Rep3,CTRL_Day0,CTRL,Day0,Rep3
Sample_Rat.Tendon.PGDS_OOO_WT_OOO_CTRL_Day0_Rep4,CTRL_Day0,CTRL,Day0,Rep4
Sample_Rat.Tendon.PGDS_OOO_WT_OOO_CTRL_Day0_Rep5,CTRL_Day0,CTRL,Day0,Rep5
Sample_Rat.Tendon.PGDS_OOO_WT_OOO_DrugG_Day21_Rep1,DrugG_Day21,DrugG,Day21,Rep1
Sample_Rat.Tendon.PGDS_OOO_WT_OOO_DrugG_Day21_Rep2,DrugG_Day21,DrugG,Day21,Rep2
Sample_Rat.Tendon.PGDS_OOO_WT_OOO_DrugG_Day21_Rep3,DrugG_Day21,DrugG,Day21,Rep3
Sample_Rat.Tendon.PGDS_OOO_WT_OOO_DrugG_Day21_Rep4,DrugG_Day21,DrugG,Day21,Rep4
Sample_Rat.Tendon.PGDS_OOO_WT_OOO_DrugG_Day21_Rep5,DrugG_Day21,DrugG,Day21,Rep5
Sample_Rat.Tendon.PGDS_OOO_WT_OOO_DrugG_Day7_Rep1,DrugG_Day7,DrugG,Day7,Rep1
Sample_Rat.Tendon.PGDS_OOO_WT_OOO_DrugG_Day7_Rep2,DrugG_Day7,DrugG,Day7,Rep2
Sample_Rat.Tendon.PGDS_OOO_WT_OOO_DrugG_Day7_Rep3,DrugG_Day7,DrugG,Day7,Rep3
Sample_Rat.Tendon.PGDS_OOO_WT_OOO_DrugG_Day7_Rep4,DrugG_Day7,DrugG,Day7,Rep4
Sample_Rat.Tendon.PGDS_OOO_WT_OOO_DrugG_Day7_Rep5,DrugG_Day7,DrugG,Day7,Rep5
Sample_Rat.Tendon.PGDS_OOO_WT_OOO_DrugT_Day21_Rep1,DrugT_Day21,DrugT,Day21,Rep1
Sample_Rat.Tendon.PGDS_OOO_WT_OOO_DrugT_Day21_Rep2,DrugT_Day21,DrugT,Day21,Rep2
Sample_Rat.Tendon.PGDS_OOO_WT_OOO_DrugT_Day21_Rep3,DrugT_Day21,DrugT,Day21,Rep3
Sample_Rat.Tendon.PGDS_OOO_WT_OOO_DrugT_Day21_Rep4,DrugT_Day21,DrugT,Day21,Rep4
Sample_Rat.Tendon.PGDS_OOO_WT_OOO_DrugT_Day21_Rep5,DrugT_Day21,DrugT,Day21,Rep5
Sample_Rat.Tendon.PGDS_OOO_WT_OOO_DrugT_Day7_Rep1,DrugT_Day7,DrugT,Day7,Rep1
Sample_Rat.Tendon.PGDS_OOO_WT_OOO_DrugT_Day7_Rep2,DrugT_Day7,DrugT,Day7,Rep2
Sample_Rat.Tendon.PGDS_OOO_WT_OOO_DrugT_Day7_Rep3,DrugT_Day7,DrugT,Day7,Rep3
Sample_Rat.Tendon.PGDS_OOO_WT_OOO_DrugT_Day7_Rep4,DrugT_Day7,DrugT,Day7,Rep4
Sample_Rat.Tendon.PGDS_OOO_WT_OOO_DrugT_Day7_Rep5,DrugT_Day7,DrugT,Day7,Rep5
Sample_Rat.Tendon.PGDS_OOO_WT_OOO_DrugY_Day21_Rep1,DrugY_Day21,DrugY,Day21,Rep1
Sample_Rat.Tendon.PGDS_OOO_WT_OOO_DrugY_Day21_Rep2,DrugY_Day21,DrugY,Day21,Rep2
Sample_Rat.Tendon.PGDS_OOO_WT_OOO_DrugY_Day21_Rep3,DrugY_Day21,DrugY,Day21,Rep3
Sample_Rat.Tendon.PGDS_OOO_WT_OOO_DrugY_Day21_Rep4,DrugY_Day21,DrugY,Day21,Rep4
Sample_Rat.Tendon.PGDS_OOO_WT_OOO_DrugY_Day21_Rep5,DrugY_Day21,DrugY,Day21,Rep5
Sample_Rat.Tendon.PGDS_OOO_WT_OOO_DrugY_Day7_Rep1,DrugY_Day7,DrugY,Day7,Rep1
Sample_Rat.Tendon.PGDS_OOO_WT_OOO_DrugY_Day7_Rep2,DrugY_Day7,DrugY,Day7,Rep2
Sample_Rat.Tendon.PGDS_OOO_WT_OOO_DrugY_Day7_Rep3,DrugY_Day7,DrugY,Day7,Rep3
Sample_Rat.Tendon.PGDS_OOO_WT_OOO_DrugY_Day7_Rep4,DrugY_Day7,DrugY,Day7,Rep4
Sample_Rat.Tendon.PGDS_OOO_WT_OOO_DrugY_Day7_Rep5,DrugY_Day7,DrugY,Day7,Rep5
